{
  "ok": true,
  "data": {
    "success": true,
    "requestId": "",
    "data": {
      "hasMore": true,
      "page": 1,
      "pageSize": 3,
      "pages": 4,
      "total": 11,
      "original": "application",
      "data": [
        {
          "machineId": "1",
          "appName": "x1",
          "groupName": "x1_pre",
          "hostname": "x-ssafa",
          "ip": "1.1.1.1",
          "type": "pod",
          "createTime": 1599198901000,
          "modifyTime": 1599198901000,
          "status": 2,
          "chaosed": true,
          "chaosTime": 1599198901000
        },
        {
          "machineId": "2",
          "appName": "x2",
          "groupName": "x1_pre",
          "hostname": "x-ssafa",
          "ip": "1.1.1.1",
          "type": "pod",
          "createTime": 1599198901000,
          "modifyTime": 1599198901000,
          "status": 2,
          "chaosed": true,
          "chaosTime": 1599198901000
        },
        {
          "machineId": "3",
          "appName": "x3",
          "groupName": "x1_pre",
          "hostname": "x-ssafa",
          "ip": "1.1.1.1",
          "type": "pod",
          "createTime": 1599198901000,
          "modifyTime": 1599198901000,
          "status": 2,
          "chaosed": true,
          "chaosTime": 1599198901000
        },
        {
          "machineId": "4",
          "appName": "x4",
          "groupName": "x1_pre",
          "hostname": "x-ssafa",
          "ip": "1.1.1.1",
          "type": "pod",
          "createTime": 1599198901000,
          "modifyTime": 1599198901000,
          "status": 2,
          "chaosed": true,
          "chaosTime": 1599198901000
        },
        {
          "machineId": "5",
          "appName": "x5",
          "groupName": "x1_pre",
          "hostname": "x-ssafa",
          "ip": "1.1.1.1",
          "type": "pod",
          "createTime": 1599198901000,
          "modifyTime": 1599198901000,
          "status": 2,
          "chaosed": true,
          "chaosTime": 1599198901000
        }
      ]
    }
  }
}